<?xml version="1.0" encoding="utf-8"?>
<!-- Generator: Adobe Illustrator 16.0.0, SVG Export Plug-In . SVG Version: 6.00 Build 0)  -->
<!DOCTYPE svg PUBLIC "-//W3C//DTD SVG 1.1//EN" "http://www.w3.org/Graphics/SVG/1.1/DTD/svg11.dtd">
<svg version="1.1" id="Layer_1" xmlns="http://www.w3.org/2000/svg" xmlns:xlink="http://www.w3.org/1999/xlink" x="0px" y="0px"
	 width="375px" height="313px" viewBox="0 0 375 313" enable-background="new 0 0 375 313" xml:space="preserve">
<path fill="#97785E" d="M149.136,92.461c0,0-14.652,66.749,4.885,94.428c0,0,29.306-10.309,48.839,4.883
	c0,0,58.607-55.353,113.957-17.908c0,0,48.839,104.191-45.582,99.309c0,0-17.909,3.26-29.299,3.26c0,0-52.097,35.814-120.474,3.256
	c0,0-21.163-9.77-30.93-11.398c0,0-22.796-3.256-27.679-27.676c0,0-4.885-39.072,1.626-55.352c0,0,37.446-78.146,47.214-100.938
	c0,0,9.769-19.538,13.021-29.303c0,0,8.142-22.791,26.052-22.791c0,0,34.729,0,47.753,4.883c0,0,11.126,6.51,12.892,16.686
	c0,0,2.851,21.98,2.037,31.747c0,0-1.833,9.972-13.434,4.479c0,0-6.51,10.039-15.872,1.084c0,0-5.15,7.056-15.731-1.9
	c0,0-10.311,7.598-14.381-2.167l-4.886,1.356v4.063L149.136,92.461L149.136,92.461z"/>
<g>
	<path fill="#856953" d="M183.865,202.624c3.786-2.649,8.27-4.347,12.93-5.224c4.672-0.832,9.64-0.778,14.38,0.479
		c4.757,1.196,9.246,3.491,13.098,6.499c3.908,2.958,7.171,6.617,9.963,10.508c0.146,0.204,0.269,0.424,0.349,0.645l0.059,0.143
		c1.894,4.924,3.876,9.992,6.056,14.887c2.179,4.912,4.394,9.81,6.881,14.562c2.434,4.771,5.076,9.442,8.066,13.874
		c3.002,4.424,6.354,8.631,10.709,12.006c-5.188-2.027-9.543-5.85-13.363-9.883c-3.816-4.104-7.092-8.648-10.062-13.342
		c-2.925-4.728-5.604-9.592-7.958-14.604c-2.337-5.033-4.551-10.049-6.372-15.384l0.405,0.784c-2.457-3.559-5.291-6.805-8.452-9.61
		c-3.21-2.759-6.824-5.004-10.785-6.502c-3.979-1.44-8.274-2.211-12.675-2.132C192.691,200.389,188.208,201.133,183.865,202.624z"/>
	<path fill="#856953" d="M138.282,212.391c1.455,7.611,2.565,14.448,5.04,20.621c1.232,3.07,2.771,5.93,4.801,8.59
		c2.007,2.699,4.567,5.096,7.521,7.691c-3.938-0.041-7.846-1.534-11.107-4.035c-3.264-2.511-5.766-6.033-7.258-9.83
		c-1.516-3.802-2.104-7.846-1.947-11.773C135.54,219.734,136.339,215.846,138.282,212.391z"/>
	<path fill="#856953" d="M162.156,266.658c8.784-0.535,16.835-0.785,24.831-1.916c3.985-0.557,7.936-1.23,11.886-2.189
		c3.955-0.957,7.875-2.183,12.127-3.49c-2.7,3.541-6.36,6.273-10.363,8.254c-4.003,1.99-8.354,3.299-12.772,3.879
		c-4.417,0.602-8.905,0.496-13.262-0.201C170.26,270.273,165.97,269.012,162.156,266.658z"/>
	<path fill="#856953" d="M75.332,234.1c1.892,4.287,2.897,7.486,4.354,10.151c0.699,1.336,1.463,2.541,2.493,3.862
		c1.037,1.326,2.378,2.654,4.009,4.437c-2.25,0.873-4.672,0.692-6.934-0.233c-2.238-0.965-4.199-2.817-5.332-5.032
		c-1.17-2.202-1.555-4.66-1.324-6.945C72.874,238.055,73.632,235.846,75.332,234.1z"/>
	<path fill="#856953" d="M149.136,84.322c-2.777-0.151-5.625-0.998-8.143-2.426c-2.531-1.412-4.748-3.394-6.603-5.612
		c-1.855-2.233-3.379-4.718-4.592-7.322c-1.238-2.623-2.146-5.291-2.786-8.2l3.034-0.179c-0.429,3.331-1.036,6.585-1.909,9.812
		c-0.456,1.608-0.948,3.213-1.626,4.756c-0.672,1.524-1.394,3.117-2.614,4.283c0.766-1.472,1.142-3.045,1.445-4.639
		c0.272-1.6,0.521-3.199,0.711-4.814c0.394-3.215,0.704-6.475,0.93-9.678l0.665-9.484l2.366,9.306
		c0.637,2.493,1.625,5.063,2.699,7.481c1.099,2.435,2.41,4.752,3.927,6.931c1.54,2.153,3.313,4.133,5.389,5.81
		C144.112,82.048,146.486,83.344,149.136,84.322z"/>
	<path fill="#856953" d="M168.676,65.305c-0.376,7.918-0.444,15.916-0.272,23.898c-1.256-7.898-2.272-15.828-2.982-23.857
		L168.676,65.305z"/>
	<path fill="#856953" d="M185.223,61.148c0.041,10.055-0.411,20.004-1.086,29.955c-0.412-9.943-1.049-19.922-2.161-29.733
		L185.223,61.148z"/>
	<path fill="#856953" d="M201.232,57.361c0.023,10.922-0.22,21.82-1.22,32.656c-0.08-10.865-0.93-21.705-2.031-32.467
		L201.232,57.361z"/>
	<path fill="#856953" d="M154.021,87.037c-0.29-4.364-0.854-8.704-1.765-12.938c-0.237-1.058-0.492-2.105-0.788-3.143L151,69.42
		c-0.236-0.602-0.029-0.158-0.272-0.271c-1.365,0.101-3.531,1.373-5.111,2.463l-1.645-2.801c1.087-0.521,2.117-0.937,3.251-1.307
		c1.152-0.316,2.232-0.74,3.858-0.5c0.404,0.083,0.926,0.293,1.3,0.746c0.195,0.207,0.376,0.641,0.364,0.678
		c0.098,0.311,0.072,0.323,0.121,0.5l0.315,1.646c0.188,1.098,0.335,2.199,0.456,3.298
		C154.104,78.266,154.196,82.661,154.021,87.037z"/>
	<path fill="#856953" d="M142.752,55.869c4.637-2.967,9.438-5.03,14.392-6.874c4.951-1.808,10.021-3.22,15.146-4.315
		c10.247-2.188,20.713-3.063,31.115-2.955c-10.396,0.432-20.747,1.851-30.734,4.535c-4.997,1.348-9.896,2.993-14.628,5.008
		c-4.689,2.012-9.38,4.375-13.383,7.24L142.752,55.869z"/>
	<path fill="#856953" d="M259.028,179.561c2.371-4.162,6.857-6.824,11.369-8.344c4.592-1.529,9.473-1.98,14.19-1.625
		c4.737,0.336,9.327,1.483,13.663,3.143c4.325,1.664,8.427,3.865,12.057,6.83c-4.66-0.453-9.051-1.248-13.386-1.926
		c-4.331-0.676-8.591-1.221-12.813-1.549c-4.223-0.309-8.407-0.388-12.583,0.064C267.356,176.662,263.175,177.482,259.028,179.561z"
		/>
	<path fill="#856953" d="M154.021,186.885c-4.672,0.969-9.184,2.262-13.271,4.297c-4.13,1.965-7.713,4.684-11.339,7.608
		c-3.58,2.961-7.42,6.11-11.988,8.467c-4.533,2.419-9.715,3.606-14.729,4.013c-1.771,0.146-3.318-1.172-3.464-2.942
		c-0.067-0.839,0.189-1.632,0.679-2.244l0.128-0.166c2.759-3.499,5.465-7.955,7.68-12.319c2.359-4.381,4.354-8.981,6.285-13.631
		c1.88-4.666,3.639-9.421,5.233-14.25c1.667-4.816,3.101-9.723,4.667-14.652c-0.08,5.177-0.681,10.315-1.475,15.443
		c-0.861,5.113-2.013,10.191-3.531,15.186c-1.475,5.01-3.394,9.896-5.588,14.686c-2.389,4.768-4.743,9.299-8.401,13.794
		l-2.658-5.353c4.404-0.229,8.592-1.262,12.547-3.012c3.983-1.731,7.668-4.424,11.697-7.025c3.974-2.667,8.427-5.09,13.147-6.48
		C144.377,186.928,149.269,186.486,154.021,186.885z"/>
</g>
</svg>
