<?xml version="1.0" encoding="utf-8"?>
<!-- Generator: Adobe Illustrator 16.0.0, SVG Export Plug-In . SVG Version: 6.00 Build 0)  -->
<!DOCTYPE svg PUBLIC "-//W3C//DTD SVG 1.1//EN" "http://www.w3.org/Graphics/SVG/1.1/DTD/svg11.dtd">
<svg version="1.1" id="Capa_1" xmlns="http://www.w3.org/2000/svg" xmlns:xlink="http://www.w3.org/1999/xlink" x="0px" y="0px"
	 width="375px" height="468px" viewBox="0 92 375 468" enable-background="new 0 92 375 468" xml:space="preserve">
<g>
	<g>
		<path fill="#61B872" d="M375,333.5c0-45.452-16.177-87.116-43.08-119.573l-0.059,0.291c-5.709,27.725-8.586,55.959-8.586,84.266
			v73.81H51.724v-73.81c0-28.307-2.877-56.541-8.586-84.266l-0.059-0.291C16.177,246.384,0,288.048,0,333.5
			c0,50.114,19.7,95.593,51.724,129.233v-58.112h271.552v58.112C355.299,429.093,375,383.614,375,333.5z"/>
	</g>
	<path fill="#FBCE9D" d="M323.276,372.293v-73.81c0-28.307,2.877-56.541,8.586-84.266l0.059-0.291
		C297.531,172.437,245.606,146,187.5,146S77.47,172.437,43.079,213.927l0.059,0.291c5.709,27.725,8.586,55.959,8.586,84.266v73.81
		H323.276z"/>
	<path fill="#F7B563" d="M155.172,281.724c-13.332,0-26.67-4.901-36.814-14.689c-2.566-2.483-2.645-6.576-0.161-9.143
		c2.482-2.561,6.581-2.645,9.142-0.162c15.35,14.813,40.325,14.813,55.675,0c2.566-2.482,6.659-2.398,9.143,0.162
		c2.476,2.566,2.405,6.659-0.162,9.143C181.843,276.823,168.504,281.724,155.172,281.724z"/>
	<path fill="#F7B563" d="M219.827,281.724c-13.332,0-26.67-4.901-36.814-14.689c-2.566-2.483-2.645-6.576-0.162-9.143
		c2.483-2.561,6.582-2.645,9.143-0.162c15.35,14.813,40.325,14.813,55.675,0c2.566-2.482,6.666-2.398,9.143,0.162
		c2.476,2.566,2.404,6.659-0.162,9.143C246.498,276.823,233.159,281.724,219.827,281.724z"/>
	<path fill="#F7B563" d="M164.87,346.431c-10.668,0-20.566-5.535-27.866-15.602c-2.095-2.891-1.454-6.931,1.436-9.026
		c2.896-2.101,6.931-1.448,9.032,1.442c4.804,6.614,10.979,10.254,17.398,10.254c6.421,0,12.595-3.64,17.393-10.261
		c2.102-2.884,6.143-3.536,9.032-1.441c2.891,2.095,3.53,6.136,1.436,9.025C185.438,340.896,175.538,346.431,164.87,346.431z"/>
	<path fill="#F7B563" d="M210.129,346.431c-10.668,0-20.566-5.535-27.866-15.602c-2.095-2.891-1.455-6.931,1.436-9.026
		c2.896-2.101,6.931-1.448,9.032,1.442c4.804,6.614,10.979,10.254,17.398,10.254s12.595-3.64,17.393-10.261
		c2.102-2.884,6.142-3.536,9.032-1.441c2.89,2.095,3.53,6.136,1.436,9.025C230.697,340.896,220.797,346.431,210.129,346.431z"/>
	<path fill="#F7B563" d="M116.386,378.759c-2.373,0-4.655-1.306-5.793-3.575L91.197,336.39c-1.598-3.194-0.305-7.08,2.89-8.677
		c3.207-1.591,7.08-0.298,8.677,2.89l19.396,38.793c1.597,3.194,0.304,7.08-2.89,8.677
		C118.345,378.539,117.356,378.759,116.386,378.759z"/>
	<path fill="#F7B563" d="M258.615,378.759c-0.97,0-1.959-0.22-2.884-0.679c-3.194-1.597-4.487-5.482-2.891-8.677l19.397-38.793
		c1.597-3.188,5.47-4.48,8.676-2.891c3.194,1.598,4.487,5.483,2.891,8.677l-19.396,38.793
		C263.27,377.453,260.988,378.759,258.615,378.759z"/>
	<g>
		<path fill="#E7ECED" d="M239.224,414.319c0-5.528,0.575-10.92,1.559-16.164H134.218c0.989,5.244,1.558,10.636,1.558,16.164
			c0,21.918-8.159,41.871-21.511,57.175c-7.241-4.727-14.993-8.735-23.12-12v2.968c21.497,11.631,40.202,30.155,54.42,49.713
			c1.196,1.649-0.316,3.912-2.282,3.53C157.468,519.138,172.261,521,187.5,521c15.252,0,30.064-1.868,44.263-5.301
			c-1.966,0.388-3.485-1.882-2.289-3.53c14.011-19.268,32.366-37.552,53.464-49.209v-3.098c-7.798,3.194-15.227,7.1-22.196,11.651
			C247.384,456.196,239.224,436.244,239.224,414.319z"/>
		<path fill="#E7ECED" d="M282.938,494.886v-0.052c-11.625,6.898-24.059,12.581-37.125,16.875
			C258.879,507.429,271.313,501.772,282.938,494.886z"/>
		<path fill="#E7ECED" d="M91.145,494.356c11.831,7.105,24.517,12.911,37.861,17.288c-13.345-4.402-26.017-10.273-37.861-17.392
			V494.356z"/>
		<path fill="#E7ECED" d="M129.718,511.884c4.234,1.371,8.534,2.593,12.892,3.666C138.252,514.476,133.947,513.261,129.718,511.884z
			"/>
		<path fill="#E7ECED" d="M232.409,515.544c4.273-1.055,8.489-2.244,12.646-3.582C240.906,513.306,236.683,514.496,232.409,515.544z
			"/>
	</g>
	<rect x="51.724" y="366.512" fill="#556080" width="109.914" height="38.108"/>
	<rect x="213.362" y="366.512" fill="#556080" width="109.914" height="38.108"/>
	<path fill="#FFFFFF" d="M142.241,422.291c0-6.039-0.621-11.922-1.681-17.645l-88.817-0.025c0,42.239,0,42.266,0,42.291v14.605
		c24.757,1.817,47.709,10.041,67.339,22.985C133.454,467.847,142.241,446.142,142.241,422.291z"/>
	<path fill="#FFFFFF" d="M234.44,404.621c-1.066,5.716-1.681,11.586-1.681,17.612c0,23.857,8.786,45.568,23.172,62.224
		c19.63-12.95,42.588-21.181,67.357-22.997v-56.813L234.44,404.621z"/>
	<g>
		<line fill="none" x1="187.5" y1="398.155" x2="187.5" y2="443.414"/>
		<path fill="#FFFFFF" d="M187.5,449.88c-3.569,0-6.466-2.891-6.466-6.466v-45.259c0-3.575,2.896-6.466,6.466-6.466
			c3.568,0,6.465,2.891,6.465,6.466v45.259C193.965,446.989,191.069,449.88,187.5,449.88z"/>
	</g>
	<rect x="161.638" y="366.435" fill="#FFFFFF" width="51.724" height="38.056"/>
	<path fill="#FBCE9D" d="M323.295,462.714v-12.35c-37.998,2.761-71.45,31.035-93.821,61.798c-1.222,1.675,0.369,4.028,2.38,3.537
		C267.368,507.087,298.901,488.337,323.295,462.714z"/>
	<path fill="#FBCE9D" d="M51.743,462.753c24.395,25.616,55.934,44.354,91.448,52.965c2.018,0.492,3.602-1.861,2.38-3.536
		c-22.371-30.77-55.823-59.05-93.828-61.811V462.753z"/>
	<path fill="#F7B563" d="M336.801,221.64l0.298-1.157c-2.929-3.873-6.02-7.61-9.232-11.237c-1.132,0.911-2.018,2.134-2.334,3.666
		c-0.182,0.892-0.337,1.784-0.485,2.683l-0.162,0.912c-6.853,12.362-19.771,20.011-33.937,20.011c-3.569,0-6.466,2.89-6.466,6.466
		c0,3.575,2.896,6.465,6.466,6.465C310.267,249.448,327.84,238.793,336.801,221.64z"/>
	<path fill="#F7B563" d="M84.052,236.517c-14.173,0-27.084-7.648-33.932-20.018l-0.168-0.957c-0.148-0.879-0.297-1.752-0.479-2.631
		c-0.316-1.532-1.209-2.748-2.347-3.653c-3.239,3.653-6.35,7.423-9.298,11.321l0.375,1.066
		c8.955,17.146,26.521,27.802,45.848,27.802c3.568,0,6.465-2.89,6.465-6.465C90.517,239.407,87.62,236.517,84.052,236.517z"/>
</g>
</svg>
