<?xml version="1.0" encoding="utf-8"?>
<!-- Generator: Adobe Illustrator 16.0.0, SVG Export Plug-In . SVG Version: 6.00 Build 0)  -->
<!DOCTYPE svg PUBLIC "-//W3C//DTD SVG 1.1//EN" "http://www.w3.org/Graphics/SVG/1.1/DTD/svg11.dtd">
<svg version="1.1" id="Capa_1" xmlns="http://www.w3.org/2000/svg" xmlns:xlink="http://www.w3.org/1999/xlink" x="0px" y="0px"
	 width="375px" height="477px" viewBox="0 81 375 477" enable-background="new 0 81 375 477" xml:space="preserve">
<path fill="#FDD7AD" d="M188.645,146c-1.257,0-2.283,0.908-2.507,2.145c-1.401,7.75-12.861,37.803-98.684,122.25
	c0,0-28.849,24.475-23.323,82.79c1.922,20.263,2.757,40.585,1.151,60.875c-2.77,35.086-16.861,79.5-17.302,93.178
	c-0.244,7.651,6.02,11.283,13.631,12.889c16.836,3.559,33.947-4.053,44.165-17.896c11.579-15.69,26.796-44.079,39.967-94.276
	c8.724-33.263,38.112-57.553,72.487-58.632c0.611-0.02,1.224-0.032,1.842-0.046c12.026-0.263,23.895-4.921,31.651-14.118
	c8.157-9.664,13.092-24.467,0.204-45.026c-25.771-41.118-18.639-69.625,6.578-85.526c20.31-12.803,55.007-42.776,67.685-54.197
	c1.73-1.565,0.599-4.408-1.737-4.408H188.645z"/>
<path fill="#ED7161" d="M65.289,414.066c-2.776,35.079-16.868,79.493-17.309,93.171c-0.244,7.645,6.02,11.283,13.625,12.889
	c16.835,3.559,33.947-4.053,44.164-17.896c11.579-15.69,26.796-44.079,39.967-94.276c8.724-33.263,38.112-57.553,72.487-58.632
	c0.611-0.02,1.224-0.032,1.842-0.052c12.026-0.264,23.895-4.922,31.651-14.119c8.158-9.664,13.092-24.467,0.204-45.026
	c-5.065-8.085-8.815-15.657-11.454-22.77c-60.283,14.947-132.592,65.185-175.355,98.132
	C66.256,381.671,66.566,397.882,65.289,414.066z"/>
<path fill="#CB465F" d="M251.724,335.158c4.23-5.014,7.585-11.408,8.046-19.276c0.065-1.125-1.02-2.026-2.125-1.803l-10.007,2.033
	c-0.342,0.065-0.638,0.243-0.868,0.507c-4.514,5.065-11.882,6.229-20.315,6.414l-2.474,0.072
	c-51.737,1.618-97.191,40.112-110.533,90.974c-14.493,55.25-30.685,86.389-42.421,103.283c-0.757,1.092,1.993,3.395,3.276,3.046
	c7.953-2.164,19.328-1.099,31.479-18.164c11.276-15.829,26.691-43.889,39.829-93.776c8.915-33.849,38.889-58.29,73.882-59.172
	c0.19-0.006,0.388-0.006,0.586-0.013C232.092,349.007,243.96,344.348,251.724,335.158z"/>
<path fill="#FB7B76" d="M117.289,240.119l43.941,60.9c11.789-6.604,23.75-12.724,35.645-18.059l-52.435-72.665
	C136.849,219.093,127.881,228.994,117.289,240.119z"/>
<path fill="#FF5364" d="M165.032,185.473c-1.552,1.921-3.25,4.014-5.046,6.218c-4.388,5.572-9.52,11.782-15.493,18.671
	l10.092,13.986h85.521c1.868-3.835,4.315-7.354,7.282-10.559c0.257-0.276,0.52-0.54,0.783-0.81c1.197-1.23,2.467-2.414,3.81-3.546
	c0.4-0.336,0.782-0.678,1.197-1.007c1.684-1.335,3.434-2.625,5.328-3.815c1.843-1.165,3.816-2.48,5.869-3.908
	c0.053-0.033,0.104-0.072,0.157-0.105c2.066-1.44,4.218-2.993,6.435-4.638l0.132-0.04c4.361-3.224,8.96-6.77,13.599-10.447H165.032z
	"/>
</svg>
