<?xml version="1.0" encoding="utf-8"?>
<!-- Generator: Adobe Illustrator 16.0.0, SVG Export Plug-In . SVG Version: 6.00 Build 0)  -->
<!DOCTYPE svg PUBLIC "-//W3C//DTD SVG 1.1//EN" "http://www.w3.org/Graphics/SVG/1.1/DTD/svg11.dtd">
<svg version="1.1" id="Layer_1" xmlns="http://www.w3.org/2000/svg" xmlns:xlink="http://www.w3.org/1999/xlink" x="0px" y="0px"
	 width="375px" height="501px" viewBox="0 72 375 501" enable-background="new 0 72 375 501" xml:space="preserve">
<g>
	<path fill="#E2E5E7" d="M22.086,453.203c0,0-10.89,16.39-2.115,34.348c8.537,17.471,31.28,16.29,35.146,13.12L22.086,453.203z"/>
	
		<ellipse transform="matrix(0.4948 0.869 -0.869 0.4948 432.6572 199.5082)" fill="#C6CBCB" cx="44.739" cy="471.867" rx="31.018" ry="22.342"/>
	
		<ellipse transform="matrix(0.4948 0.869 -0.869 0.4948 433.2173 193.9565)" fill="#E2E5E7" cx="49.793" cy="469.575" rx="25.846" ry="16.798"/>
	
		<ellipse transform="matrix(0.4948 0.869 -0.869 0.4948 433.2458 190.7431)" fill="#2D404E" cx="52.571" cy="467.992" rx="21.085" ry="13.699"/>
	<path fill="#253744" d="M55.207,487.172c2.792,0.686,5.493,0.463,7.778-0.84c6.576-3.743,7.234-14.981,1.473-25.102
		s-15.763-15.29-22.338-11.545c-2.965,1.688-4.727,4.898-5.239,8.842c0,0,3.678-6.099,12.891,0
		c9.212,6.1,11.138,14.028,12.176,20.917S55.207,487.172,55.207,487.172z"/>
	<g>
		<path fill="#C6CBCB" d="M349.203,471.169l-1.081-3.154c1.415-0.484,7.348-6.399,6.975-10.579c-0.09-1.008-1.033-1.861-1.808-2.4
			c-5.093-3.536-18.77-4.884-32.849-1.025c-18.563,5.09-38.608,6.173-38.81,6.183l-0.171-3.329
			c0.197-0.01,19.896-1.078,38.101-6.068c15.753-4.32,29.847-2.513,35.63,1.503c2.462,1.71,3.115,3.577,3.227,4.841
			C358.969,463.308,351.658,470.326,349.203,471.169z"/>
	</g>
	<path fill="#EB8923" d="M297.165,487.714c0,11.742-10.608,21.261-23.696,21.261H83.905c-13.088,0-23.696-9.519-23.696-21.261
		V167.26c0-11.74,10.609-21.261,23.696-21.261h189.563c13.088,0,23.696,9.521,23.696,21.261L297.165,487.714L297.165,487.714z"/>
	<path fill="#E2E5E7" d="M279.815,323.898c0,1.982-1.492,3.589-3.334,3.589H80.891c-1.841,0-3.334-1.606-3.334-3.589V170.754
		c0-1.982,1.493-3.589,3.334-3.589h195.59c1.842,0,3.335,1.606,3.335,3.589L279.815,323.898L279.815,323.898z"/>
	<circle fill="#C6CBCB" cx="178.686" cy="413.803" r="74.035"/>
	
		<ellipse transform="matrix(-0.1958 0.9806 -0.9806 -0.1958 797.2576 325.6935)" fill="#2D404E" cx="265.083" cy="489.75" rx="27.216" ry="3.334"/>
	<path fill="#E2E5E7" d="M351.751,466.714c-1.596-2.176-6.557-7.054-12.024-2.614c-5.468,4.441-24.088,20.31-31.088,24.873
		c-7.001,4.564-11.717-6.782-14.799-15.121c-3.083-8.34-12.741-12.279-12.741-12.279l-16.035,59.332
		c8.126-0.216,25.847-2.478,32.101-4.789c9.772-3.614,20.6-12.022,21.553-12.702c3.436-2.455,27.197-21.509,31.639-25.521
		C354.796,473.881,353.346,468.889,351.751,466.714z"/>
	<path fill="#C6CBCB" d="M325.479,475.897c5.954-4.891,11.62-9.663,14.248-11.798c5.468-4.439,10.429,0.439,12.024,2.614
		c1.595,2.176,3.045,7.167-1.396,11.18c-2.121,1.913-8.64,7.255-15.251,12.582c0,0,3.388-7.281-1.874-11.897
		C329.965,475.711,325.479,475.897,325.479,475.897z"/>
	<g>
		<rect x="229.124" y="309.89" fill="#C6CBCB" width="35.439" height="10.906"/>
		<rect x="229.124" y="293.533" fill="#C6CBCB" width="35.439" height="10.907"/>
		<rect x="229.124" y="277.177" fill="#C6CBCB" width="35.439" height="10.905"/>
		<rect x="183.686" y="309.89" fill="#C6CBCB" width="35.441" height="10.906"/>
		<rect x="183.686" y="293.533" fill="#C6CBCB" width="35.441" height="10.907"/>
		<rect x="183.686" y="277.177" fill="#C6CBCB" width="35.441" height="10.905"/>
		<rect x="183.686" y="260.818" fill="#C6CBCB" width="35.441" height="10.905"/>
		<rect x="183.686" y="244.462" fill="#C6CBCB" width="35.441" height="10.904"/>
		<rect x="183.686" y="228.102" fill="#C6CBCB" width="35.441" height="10.906"/>
		<rect x="138.245" y="309.89" fill="#C6CBCB" width="35.441" height="10.906"/>
		<rect x="138.245" y="293.533" fill="#C6CBCB" width="35.441" height="10.907"/>
		<rect x="138.245" y="277.177" fill="#C6CBCB" width="35.441" height="10.905"/>
		<rect x="138.245" y="260.818" fill="#C6CBCB" width="35.441" height="10.905"/>
		<rect x="138.245" y="244.462" fill="#C6CBCB" width="35.441" height="10.904"/>
		<rect x="138.245" y="228.102" fill="#C6CBCB" width="35.441" height="10.906"/>
		<rect x="138.245" y="211.746" fill="#C6CBCB" width="35.441" height="10.905"/>
		<rect x="138.245" y="195.388" fill="#C6CBCB" width="35.441" height="10.905"/>
		<rect x="138.245" y="179.031" fill="#C6CBCB" width="35.441" height="10.904"/>
		<rect x="92.807" y="309.89" fill="#C6CBCB" width="35.441" height="10.906"/>
		<rect x="92.807" y="293.533" fill="#C6CBCB" width="35.441" height="10.907"/>
		<rect x="92.807" y="277.177" fill="#C6CBCB" width="35.441" height="10.905"/>
		<rect x="92.807" y="260.818" fill="#C6CBCB" width="35.441" height="10.905"/>
		<rect x="92.807" y="244.462" fill="#C6CBCB" width="35.441" height="10.904"/>
	</g>
	<path opacity="0.25" fill="#D1D5D5" enable-background="new    " d="M80.891,167.164c-1.841,0-3.334,1.606-3.334,3.589v153.146
		c0,1.982,1.493,3.589,3.334,3.589h46.706l113.395-160.323H80.891L80.891,167.164z"/>
	<circle fill="#E2E5E7" cx="178.686" cy="413.803" r="70.145"/>
	<circle fill="#C6CBCB" cx="178.687" cy="413.803" r="26.971"/>
	<g>
		<polygon fill="#C6CBCB" points="230.921,413.804 226.129,416.569 221.338,419.336 221.338,413.804 221.338,408.27 
			226.129,411.037 		"/>
		<polygon fill="#C6CBCB" points="238.92,413.804 234.127,416.569 229.337,419.336 229.337,413.804 229.337,408.27 234.127,411.037 
					"/>
		<path fill="#C6CBCB" d="M240.037,419.507c0,0.617-0.5,1.117-1.117,1.117l0,0c-0.616,0-1.117-0.501-1.117-1.117V408.1
			c0-0.617,0.501-1.118,1.117-1.118l0,0c0.617,0,1.117,0.501,1.117,1.118V419.507z"/>
	</g>
	<g>
		<polygon fill="#C6CBCB" points="126.453,413.804 131.244,416.569 136.035,419.336 136.035,413.804 136.035,408.27 
			131.244,411.037 		"/>
		<polygon fill="#C6CBCB" points="118.454,413.804 123.246,416.569 128.037,419.336 128.037,413.804 128.037,408.27 
			123.246,411.037 		"/>
		<path fill="#C6CBCB" d="M117.336,419.507c0,0.617,0.5,1.117,1.118,1.117l0,0c0.616,0,1.116-0.501,1.116-1.117V408.1
			c0-0.617-0.501-1.118-1.116-1.118l0,0c-0.618,0-1.118,0.501-1.118,1.118V419.507z"/>
	</g>
	<g>
		<polygon fill="#C6CBCB" points="178.328,468.32 173.535,471.086 168.745,473.851 168.745,468.32 168.745,462.787 173.535,465.553 
					"/>
		<g>
			<path fill="#C6CBCB" d="M183.441,472.711c0,0.475-0.501,0.861-1.117,0.861l0,0c-0.617,0-1.117-0.386-1.117-0.861v-8.783
				c0-0.476,0.501-0.861,1.117-0.861l0,0c0.617,0,1.117,0.385,1.117,0.861V472.711z"/>
			<path fill="#C6CBCB" d="M188.628,472.711c0,0.475-0.501,0.861-1.118,0.861l0,0c-0.616,0-1.116-0.386-1.116-0.861v-8.783
				c0-0.476,0.501-0.861,1.116-0.861l0,0c0.618,0,1.118,0.385,1.118,0.861V472.711z"/>
		</g>
	</g>
	<g>
		<path fill="#C6CBCB" d="M166.223,368.159c-0.072-1.551-0.161-3.42-0.144-5.043h-0.054c-0.391,1.462-0.889,3.082-1.423,4.598
			l-1.765,5.201h-1.676l-1.603-5.129c-0.462-1.535-0.889-3.173-1.21-4.67h-0.035c-0.055,1.569-0.126,3.475-0.214,5.112l-0.267,4.829
			h-2.05l0.802-12.008h2.886l1.567,4.829c0.428,1.406,0.802,2.832,1.104,4.166h0.054c0.321-1.299,0.731-2.777,1.194-4.186
			l1.657-4.81h2.851l0.694,12.008h-2.138L166.223,368.159z"/>
		<path fill="#C6CBCB" d="M177.541,367.731h-4.526v3.526h5.062v1.8h-7.25V361.05h6.982v1.8h-4.794v3.1h4.526V367.731
			L177.541,367.731z"/>
		<path fill="#C6CBCB" d="M179.988,373.058v-12.008h2.512l3.1,5.147c0.785,1.336,1.497,2.728,2.048,4.027h0.037
			c-0.16-1.603-0.196-3.154-0.196-4.988v-4.188h2.03v12.008h-2.28l-3.134-5.292c-0.768-1.317-1.552-2.778-2.14-4.133l-0.071,0.017
			c0.09,1.552,0.124,3.137,0.124,5.113v4.293h-2.029V373.058L179.988,373.058z"/>
		<path fill="#C6CBCB" d="M194.227,361.051v7.001c0,2.352,0.98,3.437,2.459,3.437c1.584,0,2.529-1.085,2.529-3.437v-7.001h2.19
			v6.857c0,3.707-1.905,5.346-4.791,5.346c-2.78,0-4.58-1.551-4.58-5.327v-6.876H194.227z"/>
	</g>
	<path opacity="0.04" fill="#586A73" enable-background="new    " d="M60.069,498.838c-10.723,6.104-26.287-1.014-34.764-15.901
		c-8.476-14.888-6.653-31.905,4.069-38.01c3.984-2.269,8.639-2.712,13.348-1.606c0,0-11.151-1.169-15.967,9.883
		c-4.815,11.051-1.319,28.521,10.126,38.036S60.069,498.838,60.069,498.838z"/>
	<path opacity="0.41" fill="#D1D5D5" enable-background="new    " d="M325.479,489.763c-17.563,13.017-23.675,14.684-33.122,15.794
		c-6.521,0.768-16.825-0.954-22.579-2.092l-4.714,17.439c8.126-0.216,25.847-2.478,32.101-4.789
		c9.772-3.614,20.6-12.022,21.553-12.702c3.334-2.383,25.803-20.391,31.189-25.122c0.167-0.146,0.316-0.278,0.449-0.398
		c4.007-3.622,3.214-8.033,1.85-10.46C346.754,472.509,336.931,481.277,325.479,489.763z"/>
	<path fill="#C6CBCB" d="M270.361,517.439c-0.506,2.422-2.877,3.972-5.297,3.465l-2.432-0.509c-2.421-0.506-3.972-2.876-3.466-5.297
		l11.091-53.01c0.507-2.42,2.878-3.972,5.297-3.464l2.433,0.51c2.422,0.505,3.972,2.877,3.466,5.296L270.361,517.439z"/>
</g>
</svg>
