{
  "coffee" : {
    "desc" : "café",
    "descPluriel" : "cafés",
    "price" : 0.4
  },
  "croissant" : {
    "desc" : "croissant",
    "descPluriel" : "croissants",
    "price" : 1
  },
  "soda" : {
    "desc" : "canette de soda",
    "descPluriel" : "canettes de soda",
    "price" : 1.5
  },
  "loto" : {
    "desc" : "tiquet de loto",
    "descPluriel" : "tiquets de loto",
    "price" : 2
  },
  "piscine" : {
    "desc" : "entrée à la piscine",
    "descPluriel" : "entrées à la piscine",
    "price" : 3
  },
  "beer" : {
    "desc" : "bière",
    "descPluriel" : "bière",
    "price" : 3.5
  },
  "bonbons" : {
    "desc" : "paquet de bonbons",
    "descPluriel" : "paquets de bonbons",
    "price" : 5
  },
  "tacos" : {
    "desc" : "tacos",
    "descPluriel" : "tacos",
    "price" : 5
  },
  "cigarettes" : {
    "desc" : "paquet de cigarettes",
    "descPluriel" : "paquets de cigarettes",
    "price" : 7
  },
  "book" : {
    "desc" : "bouquin",
    "descPluriel" : "bouquins",
    "price" : 8
  },
  "pizza" : {
    "desc" : "pizza",
    "descPluriel" : "pizzas",
    "price" : 10
  },
  "cinema" : {
    "desc" : "place de cinéma",
    "descPluriel" : "places de cinéma",
    "price" : 10
  },
  "burger" : {
    "desc" : "menu burger",
    "descPluriel" : "menus burger",
    "price" : 10
  },
  "cd" : {
    "desc" : "album de musique",
    "descPluriel" : "albums de musique",
    "price" : 10
  },
  "tshirt" : {
    "desc" : "vetement",
    "descPluriel" : "vetements",
    "price" : 15
  },
  "vin" : {
    "desc" : "bouteille de vin",
    "descPluriel" : "bouteilles de vin",
    "price" : 15
  },
  "mp3" : {
    "desc" : "lecteur mp3",
    "descPluriel" : "lecteurs mp3",
    "price" : 30
  },
  "game" : {
    "desc" : "jeu video",
    "descPluriel" : "jeux video",
    "price" : 30
  },
  "sport" : {
    "desc" : "mois à la salle de sport",
    "descPluriel" : "mois à la salle de sport",
    "price" : 45
  },
  "restaurant" : {
    "desc" : "restaurant en amoureux",
    "descPluriel" : "restaurants en amoureux",
    "price" : 50
  },
  "parfum": {
    "desc" : "parfum",
    "descPluriel" : "parfums",
    "price" : 60
  },
  "tablette" : {
    "desc" : "tablette",
    "descPluriel" : "tablettes",
    "price" : 100
  },
  "smartphone" : {
    "desc" : "smartphone",
    "descPluriel" : "smartphones",
    "price" : 300
  },
  "pc" : {
    "desc" : "ordinateur",
    "descPluriel" : "ordinateurs",
    "price" : 800
  },
  "voiture" : {
    "desc" : "voiture LOL",
    "descPluriel" : "voitures LOL",
    "price" : 15000
  }

}


